﻿index,nos
1,5
2,4
4,5
5,5
6,6
7,4
8,4
9,7
10,5
11,4
12,4
13,4
14,4
15,4
16,6
17,5
18,4
19,4
20,4
21,5
22,7
23,4
24,5
25,5
26,5
27,6
28,2
29,5
30,4
31,4
32,3
33,5
34,5
35,6
36,5
37,4
38,5
39,5
40,5
41,7
42,5
43,4
44,7
45,6
